Project 2
…
Clean the data. Include some form of data wrangling and data visualization using packages such as dplyr or tidyr. Other packages that might be helpful to you include lubridate, stringr, and forcats. You must use at least two functions from purrr.

# Step 1: Add year column using mutate (dplyr)
income_2021 <- income_2021 %>% mutate(year = 2021)
income_2022 <- income_2022 %>% mutate(year = 2022)
income_2023 <- income_2023 %>% mutate(year = 2023)

# Step 2: Combine into one dataset using map_dfr (purrr)
income_data <- list(income_2021, income_2022, income_2023)

income_total <- map_dfr(income_data, ~ .x)

print(income_total)

# A tibble: 312 × 6
   GEOID NAME       variable      estimate   moe  year
   <chr> <chr>      <chr>            <dbl> <dbl> <dbl>
 1 01    Alabama    male_income      41859   430  2021
 2 01    Alabama    female_income    27771   822  2021
 3 02    Alaska     male_income      49278  3689  2021
 4 02    Alaska     female_income    37206  1270  2021
 5 04    Arizona    male_income      43815   901  2021
 6 04    Arizona    female_income    34378   750  2021
 7 05    Arkansas   male_income      38212  1217  2021
 8 05    Arkansas   female_income    29667   904  2021
 9 06    California male_income      48580   554  2021
10 06    California female_income    36228   221  2021
# ℹ 302 more rows

# Step 3: Remove moe columns using select (dplyr)
income_total <- income_total %>%
  select(-moe)

print(income_total)

# A tibble: 312 × 5
   GEOID NAME       variable      estimate  year
   <chr> <chr>      <chr>            <dbl> <dbl>
 1 01    Alabama    male_income      41859  2021
 2 01    Alabama    female_income    27771  2021
 3 02    Alaska     male_income      49278  2021
 4 02    Alaska     female_income    37206  2021
 5 04    Arizona    male_income      43815  2021
 6 04    Arizona    female_income    34378  2021
 7 05    Arkansas   male_income      38212  2021
 8 05    Arkansas   female_income    29667  2021
 9 06    California male_income      48580  2021
10 06    California female_income    36228  2021
# ℹ 302 more rows
# Step 3: Reorganize data using pivot_wider (tidyr)
income_total <- income_total %>%
  pivot_wider(
    names_from = variable,
    values_from = c(estimate),
    names_glue = "{variable}_{.value}"
  ) %>%
  rename(
    male_income = male_income_estimate,
    female_income = female_income_estimate,
  )

print(income_total)

# A tibble: 156 × 5
   GEOID NAME                  year male_income female_income
   <chr> <chr>                <dbl>       <dbl>         <dbl>
 1 01    Alabama               2021       41859         27771
 2 02    Alaska                2021       49278         37206
 3 04    Arizona               2021       43815         34378
 4 05    Arkansas              2021       38212         29667
 5 06    California            2021       48580         36228
 6 08    Colorado              2021       51279         38153
 7 09    Connecticut           2021       51937         38493
 8 10    Delaware              2021       46638         35353
 9 11    District of Columbia  2021       77456         66861
10 12    Florida               2021       40794         31554
# ℹ 146 more rows

# Step 4: Calculate income difference between sexes using pmap_dbl (purr)
income_total <- income_total %>%
  mutate(income_difference = pmap_dbl(
    list(male_income, female_income),
    ~ ..1 - ..2
  ))

print(income_total)

# A tibble: 156 × 6
   GEOID NAME                  year male_income female_income income_difference
   <chr> <chr>                <dbl>       <dbl>         <dbl>             <dbl>
 1 01    Alabama               2021       41859         27771             14088
 2 02    Alaska                2021       49278         37206             12072
 3 04    Arizona               2021       43815         34378              9437
 4 05    Arkansas              2021       38212         29667              8545
 5 06    California            2021       48580         36228             12352
 6 08    Colorado              2021       51279         38153             13126
 7 09    Connecticut           2021       51937         38493             13444
 8 10    Delaware              2021       46638         35353             11285
 9 11    District of Columbia  2021       77456         66861             10595
10 12    Florida               2021       40794         31554              9240
# ℹ 146 more rows

# Step 5: Reorder the table by year and income difference using arrange (dplyr)
income_total <- income_total %>%
  arrange(year, income_difference)

income_total %>%
  split(.$year) %>%
  map(~ {
    print(.x)
    cat("\n") # Add a blank line between tables for readability
  })

# A tibble: 52 × 6
   GEOID NAME            year male_income female_income income_difference
   <chr> <chr>          <dbl>       <dbl>         <dbl>             <dbl>
 1 72    Puerto Rico     2021       17960         17719               241
 2 50    Vermont         2021       41857         37326              4531
 3 05    Arkansas        2021       38212         29667              8545
 4 35    New Mexico      2021       38975         30336              8639
 5 32    Nevada          2021       41192         32346              8846
 6 12    Florida         2021       40794         31554              9240
 7 04    Arizona         2021       43815         34378              9437
 8 47    Tennessee       2021       41575         31619              9956
 9 13    Georgia         2021       42378         32319             10059
10 37    North Carolina  2021       42313         31909             10404
# ℹ 42 more rows

# A tibble: 52 × 6
   GEOID NAME                  year male_income female_income income_difference
   <chr> <chr>                <dbl>       <dbl>         <dbl>             <dbl>
 1 72    Puerto Rico           2022       19760         19272               488
 2 50    Vermont               2022       46185         39356              6829
 3 32    Nevada                2022       43913         35841              8072
 4 35    New Mexico            2022       40673         32347              8326
 5 23    Maine                 2022       46286         36498              9788
 6 37    North Carolina        2022       45506         35441             10065
 7 04    Arizona               2022       47810         37718             10092
 8 10    Delaware              2022       50536         40305             10231
 9 11    District of Columbia  2022       80852         70426             10426
10 12    Florida               2022       44641         34181             10460
# ℹ 42 more rows

# A tibble: 52 × 6
   GEOID NAME            year male_income female_income income_difference
   <chr> <chr>          <dbl>       <dbl>         <dbl>             <dbl>
 1 72    Puerto Rico     2023       21238         20545               693
 2 50    Vermont         2023       50923         42435              8488
 3 05    Arkansas        2023       43087         33466              9621
 4 32    Nevada          2023       47137         37503              9634
 5 35    New Mexico      2023       41633         31803              9830
 6 02    Alaska          2023       51839         41869              9970
 7 12    Florida         2023       46882         36702             10180
 8 10    Delaware        2023       49256         39059             10197
 9 37    North Carolina  2023       47679         37287             10392
10 44    Rhode Island    2023       52645         42063             10582
# ℹ 42 more rows
…
